<?xml version="1.0" encoding="UTF-8"?>
<svg width="95px" height="35px" viewBox="0 0 95 35" version="1.1" xmlns="http://www.w3.org/2000/svg" xmlns:xlink="http://www.w3.org/1999/xlink">
    <!-- Generator: Sketch 52.6 (67491) - http://www.bohemiancoding.com/sketch -->
    <title>Wijmo</title>
    <desc>Created with Sketch.</desc>
    <g id="Wijmo" stroke="none" stroke-width="1" fill="none" fill-rule="evenodd">
        <path d="M10.75,25.44 L4,6.405 L6.322,6.405 L11.722,22.146 L16.906,6.351 L18.661,6.351 L23.845,22.146 L29.245,6.405 L31.486,6.405 L24.736,25.44 L22.927,25.44 L17.743,10.104 L12.532,25.44 L10.75,25.44 Z M35.395,8.295 L35.395,6 L37.771,6 L37.771,8.295 L35.395,8.295 Z M35.53,25.305 L35.53,11.346 L37.609,11.346 L37.609,25.305 L35.53,25.305 Z M43.246,8.295 L43.246,6 L45.622,6 L45.622,8.295 L43.246,8.295 Z M42.058,29.706 C41.572,29.706 41.221,29.679 40.762,29.571 L40.762,27.87 C41.086,27.924 41.491,27.951 41.788,27.951 C42.733,27.951 43.381,27.384 43.381,26.088 L43.381,11.346 L45.46,11.346 L45.46,26.115 C45.46,28.572 44.164,29.706 42.058,29.706 Z M51.043,25.305 L51.043,11.346 L53.122,11.346 L53.122,13.695 C54.04,12.318 55.282,11.049 57.631,11.049 C59.899,11.049 61.357,12.264 62.113,13.83 C63.112,12.291 64.597,11.049 67.027,11.049 C70.24,11.049 72.211,13.209 72.211,16.665 L72.211,25.305 L70.132,25.305 L70.132,17.151 C70.132,14.451 68.782,12.939 66.514,12.939 C64.408,12.939 62.653,14.505 62.653,17.259 L62.653,25.305 L60.601,25.305 L60.601,17.097 C60.601,14.478 59.224,12.939 57.01,12.939 C54.796,12.939 53.122,14.775 53.122,17.34 L53.122,25.305 L51.043,25.305 Z M83.761,25.629 C79.576,25.629 76.525,22.335 76.525,18.393 L76.525,18.339 C76.525,14.397 79.603,11.049 83.815,11.049 C88,11.049 91.078,14.343 91.078,18.285 L91.078,18.339 C91.078,22.281 87.973,25.629 83.761,25.629 Z M83.815,23.766 C86.839,23.766 88.945,21.336 88.945,18.393 L88.945,18.339 C88.945,15.342 86.704,12.885 83.761,12.885 C80.737,12.885 78.658,15.342 78.658,18.285 L78.658,18.339 C78.658,21.336 80.872,23.766 83.815,23.766 Z" fill="#01C1D5"></path>
    </g>
</svg>